G75*
%MOIN*%
%OFA0B0*%
%FSLAX25Y25*%
%IPPOS*%
%LPD*%
%AMOC8*
5,1,8,0,0,1.08239X$1,22.5*
%
%ADD10C,0.05600*%
%ADD11OC8,0.05600*%
%ADD12C,0.07400*%
%ADD13C,0.01600*%
%ADD14C,0.04000*%
D10*
X0046800Y0026800D03*
D11*
X0036800Y0026800D03*
X0036800Y0036800D03*
X0046800Y0036800D03*
X0046800Y0046800D03*
X0036800Y0046800D03*
X0036800Y0056800D03*
X0046800Y0056800D03*
X0046800Y0066800D03*
X0036800Y0066800D03*
D12*
X0066800Y0076800D03*
X0076800Y0076800D03*
X0086800Y0076800D03*
X0096800Y0076800D03*
X0106800Y0076800D03*
X0116800Y0076800D03*
X0126800Y0076800D03*
X0136800Y0076800D03*
X0146800Y0076800D03*
X0156800Y0076800D03*
X0166800Y0076800D03*
X0176800Y0076800D03*
X0186800Y0076800D03*
X0196800Y0076800D03*
X0216800Y0076800D03*
X0226800Y0076800D03*
X0236800Y0076800D03*
X0246800Y0076800D03*
X0256800Y0076800D03*
X0256800Y0016800D03*
X0246800Y0016800D03*
X0236800Y0016800D03*
X0226800Y0016800D03*
X0216800Y0016800D03*
X0196800Y0016800D03*
X0186800Y0016800D03*
X0176800Y0016800D03*
X0166800Y0016800D03*
X0156800Y0016800D03*
X0146800Y0016800D03*
X0136800Y0016800D03*
X0126800Y0016800D03*
X0116800Y0016800D03*
X0106800Y0016800D03*
X0096800Y0016800D03*
X0086800Y0016800D03*
X0076800Y0016800D03*
X0066800Y0016800D03*
D13*
X0027143Y0007516D02*
X0026614Y0006600D01*
X0071800Y0006600D01*
X0071800Y0014498D01*
X0071504Y0013917D01*
X0070995Y0013217D01*
X0070383Y0012605D01*
X0069683Y0012096D01*
X0068911Y0011703D01*
X0068088Y0011435D01*
X0067233Y0011300D01*
X0067000Y0011300D01*
X0067000Y0016600D01*
X0066600Y0016600D01*
X0061300Y0016600D01*
X0061300Y0016367D01*
X0061435Y0015512D01*
X0061703Y0014689D01*
X0062096Y0013917D01*
X0062605Y0013217D01*
X0063217Y0012605D01*
X0063917Y0012096D01*
X0064689Y0011703D01*
X0065512Y0011435D01*
X0066367Y0011300D01*
X0066600Y0011300D01*
X0066600Y0016600D01*
X0066600Y0017000D01*
X0066600Y0022300D01*
X0066367Y0022300D01*
X0065512Y0022165D01*
X0064689Y0021897D01*
X0063917Y0021504D01*
X0063217Y0020995D01*
X0062605Y0020383D01*
X0062096Y0019683D01*
X0061703Y0018911D01*
X0061435Y0018088D01*
X0061300Y0017233D01*
X0061300Y0017000D01*
X0066600Y0017000D01*
X0067000Y0017000D01*
X0067000Y0022300D01*
X0067233Y0022300D01*
X0068088Y0022165D01*
X0068911Y0021897D01*
X0069683Y0021504D01*
X0070383Y0020995D01*
X0070995Y0020383D01*
X0071504Y0019683D01*
X0071800Y0019102D01*
X0071800Y0075022D01*
X0071293Y0073798D01*
X0070400Y0072905D01*
X0070400Y0046084D01*
X0069852Y0044761D01*
X0068839Y0043748D01*
X0067516Y0043200D01*
X0049423Y0043200D01*
X0048623Y0042400D01*
X0044977Y0042400D01*
X0042400Y0044977D01*
X0042400Y0048623D01*
X0044977Y0051200D01*
X0048623Y0051200D01*
X0049423Y0050400D01*
X0063200Y0050400D01*
X0063200Y0072905D01*
X0062307Y0073798D01*
X0061500Y0075746D01*
X0061500Y0077854D01*
X0062307Y0079802D01*
X0063798Y0081293D01*
X0065746Y0082100D01*
X0067854Y0082100D01*
X0069802Y0081293D01*
X0071293Y0079802D01*
X0071800Y0078578D01*
X0071800Y0086961D01*
X0026637Y0086961D01*
X0027143Y0086084D01*
X0027899Y0083261D01*
X0027899Y0080339D01*
X0027143Y0077516D01*
X0025682Y0074985D01*
X0023615Y0072918D01*
X0021084Y0071457D01*
X0018261Y0070701D01*
X0015339Y0070701D01*
X0012516Y0071457D01*
X0009985Y0072918D01*
X0007918Y0074985D01*
X0006600Y0077269D01*
X0006600Y0016331D01*
X0007918Y0018615D01*
X0009985Y0020682D01*
X0012516Y0022143D01*
X0015339Y0022899D01*
X0018261Y0022899D01*
X0021084Y0022143D01*
X0023615Y0020682D01*
X0025682Y0018615D01*
X0027143Y0016084D01*
X0027899Y0013261D01*
X0027899Y0010339D01*
X0027143Y0007516D01*
X0027899Y0010339D01*
X0027899Y0013261D01*
X0027143Y0016084D01*
X0025682Y0018615D01*
X0023615Y0020682D01*
X0021084Y0022143D01*
X0018261Y0022899D01*
X0015339Y0022899D01*
X0012516Y0022143D01*
X0009985Y0020682D01*
X0007918Y0018615D01*
X0006600Y0016331D01*
X0006600Y0077269D01*
X0007918Y0074985D01*
X0009985Y0072918D01*
X0012516Y0071457D01*
X0015339Y0070701D01*
X0018261Y0070701D01*
X0021084Y0071457D01*
X0023615Y0072918D01*
X0025682Y0074985D01*
X0027143Y0077516D01*
X0027899Y0080339D01*
X0027899Y0083261D01*
X0027143Y0086084D01*
X0026637Y0086961D01*
X0071800Y0086961D01*
X0071800Y0078578D01*
X0071293Y0079802D01*
X0069802Y0081293D01*
X0067854Y0082100D01*
X0065746Y0082100D01*
X0063798Y0081293D01*
X0062307Y0079802D01*
X0061500Y0077854D01*
X0061500Y0075746D01*
X0062307Y0073798D01*
X0063200Y0072905D01*
X0063200Y0050400D01*
X0049423Y0050400D01*
X0048623Y0051200D01*
X0044977Y0051200D01*
X0042400Y0048623D01*
X0042400Y0044977D01*
X0044977Y0042400D01*
X0048623Y0042400D01*
X0049423Y0043200D01*
X0067516Y0043200D01*
X0068839Y0043748D01*
X0069852Y0044761D01*
X0070400Y0046084D01*
X0070400Y0072905D01*
X0071293Y0073798D01*
X0071800Y0075022D01*
X0071800Y0019102D01*
X0071504Y0019683D01*
X0070995Y0020383D01*
X0070383Y0020995D01*
X0069683Y0021504D01*
X0068911Y0021897D01*
X0068088Y0022165D01*
X0067233Y0022300D01*
X0067000Y0022300D01*
X0067000Y0017000D01*
X0066600Y0017000D01*
X0066600Y0022300D01*
X0066367Y0022300D01*
X0065512Y0022165D01*
X0064689Y0021897D01*
X0063917Y0021504D01*
X0063217Y0020995D01*
X0062605Y0020383D01*
X0062096Y0019683D01*
X0061703Y0018911D01*
X0061435Y0018088D01*
X0061300Y0017233D01*
X0061300Y0017000D01*
X0066600Y0017000D01*
X0066600Y0016600D01*
X0061300Y0016600D01*
X0061300Y0016367D01*
X0061435Y0015512D01*
X0061703Y0014689D01*
X0062096Y0013917D01*
X0062605Y0013217D01*
X0063217Y0012605D01*
X0063917Y0012096D01*
X0064689Y0011703D01*
X0065512Y0011435D01*
X0066367Y0011300D01*
X0066600Y0011300D01*
X0066600Y0016600D01*
X0067000Y0016600D01*
X0067000Y0011300D01*
X0067233Y0011300D01*
X0068088Y0011435D01*
X0068911Y0011703D01*
X0069683Y0012096D01*
X0070383Y0012605D01*
X0070995Y0013217D01*
X0071504Y0013917D01*
X0071800Y0014498D01*
X0071800Y0006600D01*
X0026614Y0006600D01*
X0027143Y0007516D01*
X0027215Y0007785D02*
X0071800Y0007785D01*
X0027215Y0007785D01*
X0027643Y0009384D02*
X0071800Y0009384D01*
X0027643Y0009384D01*
X0027899Y0010982D02*
X0071800Y0010982D01*
X0027899Y0010982D01*
X0027899Y0012581D02*
X0063250Y0012581D01*
X0027899Y0012581D01*
X0027653Y0014179D02*
X0061963Y0014179D01*
X0027653Y0014179D01*
X0027225Y0015778D02*
X0061393Y0015778D01*
X0027225Y0015778D01*
X0026397Y0017376D02*
X0061323Y0017376D01*
X0026397Y0017376D01*
X0025322Y0018975D02*
X0061735Y0018975D01*
X0025322Y0018975D01*
X0023723Y0020573D02*
X0062795Y0020573D01*
X0023723Y0020573D01*
X0020976Y0022172D02*
X0065557Y0022172D01*
X0020976Y0022172D01*
X0012624Y0022172D02*
X0006600Y0022172D01*
X0012624Y0022172D01*
X0009877Y0020573D02*
X0006600Y0020573D01*
X0009877Y0020573D01*
X0008278Y0018975D02*
X0006600Y0018975D01*
X0008278Y0018975D01*
X0007203Y0017376D02*
X0006600Y0017376D01*
X0007203Y0017376D01*
X0006600Y0023770D02*
X0033607Y0023770D01*
X0006600Y0023770D01*
X0006600Y0025369D02*
X0032400Y0025369D01*
X0006600Y0025369D01*
X0006600Y0026967D02*
X0032400Y0026967D01*
X0006600Y0026967D01*
X0006600Y0028566D02*
X0032400Y0028566D01*
X0006600Y0028566D01*
X0006600Y0030164D02*
X0033942Y0030164D01*
X0006600Y0030164D01*
X0006600Y0031763D02*
X0071800Y0031763D01*
X0006600Y0031763D01*
X0006600Y0033361D02*
X0034016Y0033361D01*
X0006600Y0033361D01*
X0006600Y0034960D02*
X0032418Y0034960D01*
X0006600Y0034960D01*
X0006600Y0036558D02*
X0032400Y0036558D01*
X0006600Y0036558D01*
X0006600Y0038157D02*
X0032400Y0038157D01*
X0006600Y0038157D01*
X0006600Y0039755D02*
X0033533Y0039755D01*
X0006600Y0039755D01*
X0006600Y0041354D02*
X0044848Y0041354D01*
X0006600Y0041354D01*
X0006600Y0042952D02*
X0034425Y0042952D01*
X0006600Y0042952D01*
X0006600Y0044551D02*
X0032827Y0044551D01*
X0006600Y0044551D01*
X0006600Y0046149D02*
X0032400Y0046149D01*
X0006600Y0046149D01*
X0006600Y0047748D02*
X0032400Y0047748D01*
X0006600Y0047748D01*
X0006600Y0049346D02*
X0033124Y0049346D01*
X0006600Y0049346D01*
X0006600Y0050945D02*
X0034722Y0050945D01*
X0006600Y0050945D01*
X0006600Y0052543D02*
X0034834Y0052543D01*
X0006600Y0052543D01*
X0006600Y0054142D02*
X0033236Y0054142D01*
X0006600Y0054142D01*
X0006600Y0055740D02*
X0032400Y0055740D01*
X0006600Y0055740D01*
X0006600Y0057339D02*
X0032400Y0057339D01*
X0006600Y0057339D01*
X0006600Y0058937D02*
X0032715Y0058937D01*
X0006600Y0058937D01*
X0006600Y0060536D02*
X0034313Y0060536D01*
X0006600Y0060536D01*
X0006600Y0062134D02*
X0063200Y0062134D01*
X0006600Y0062134D01*
X0006600Y0063733D02*
X0033644Y0063733D01*
X0006600Y0063733D01*
X0006600Y0065332D02*
X0032400Y0065332D01*
X0006600Y0065332D01*
X0006600Y0066930D02*
X0032400Y0066930D01*
X0006600Y0066930D01*
X0006600Y0068529D02*
X0032400Y0068529D01*
X0006600Y0068529D01*
X0006600Y0070127D02*
X0033905Y0070127D01*
X0006600Y0070127D01*
X0006600Y0071726D02*
X0012051Y0071726D01*
X0006600Y0071726D01*
X0006600Y0073324D02*
X0009579Y0073324D01*
X0006600Y0073324D01*
X0006600Y0074923D02*
X0007981Y0074923D01*
X0006600Y0074923D01*
X0006600Y0076521D02*
X0007032Y0076521D01*
X0006600Y0076521D01*
X0021549Y0071726D02*
X0063200Y0071726D01*
X0021549Y0071726D01*
X0024021Y0073324D02*
X0062781Y0073324D01*
X0024021Y0073324D01*
X0025619Y0074923D02*
X0061841Y0074923D01*
X0025619Y0074923D01*
X0026568Y0076521D02*
X0061500Y0076521D01*
X0026568Y0076521D01*
X0027305Y0078120D02*
X0061610Y0078120D01*
X0027305Y0078120D01*
X0027733Y0079718D02*
X0062272Y0079718D01*
X0027733Y0079718D01*
X0027899Y0081317D02*
X0063855Y0081317D01*
X0027899Y0081317D01*
X0027899Y0082915D02*
X0071800Y0082915D01*
X0027899Y0082915D01*
X0027564Y0084514D02*
X0071800Y0084514D01*
X0027564Y0084514D01*
X0027127Y0086112D02*
X0071800Y0086112D01*
X0027127Y0086112D01*
X0069745Y0081317D02*
X0071800Y0081317D01*
X0069745Y0081317D01*
X0071328Y0079718D02*
X0071800Y0079718D01*
X0071328Y0079718D01*
X0071759Y0074923D02*
X0071800Y0074923D01*
X0071759Y0074923D01*
X0071800Y0073324D02*
X0070819Y0073324D01*
X0071800Y0073324D01*
X0071800Y0071726D02*
X0070400Y0071726D01*
X0071800Y0071726D01*
X0071800Y0070127D02*
X0070400Y0070127D01*
X0071800Y0070127D01*
X0071800Y0068529D02*
X0070400Y0068529D01*
X0071800Y0068529D01*
X0071800Y0066930D02*
X0070400Y0066930D01*
X0071800Y0066930D01*
X0071800Y0065332D02*
X0070400Y0065332D01*
X0071800Y0065332D01*
X0071800Y0063733D02*
X0070400Y0063733D01*
X0071800Y0063733D01*
X0071800Y0062134D02*
X0070400Y0062134D01*
X0071800Y0062134D01*
X0071800Y0060536D02*
X0070400Y0060536D01*
X0071800Y0060536D01*
X0071800Y0058937D02*
X0070400Y0058937D01*
X0071800Y0058937D01*
X0071800Y0057339D02*
X0070400Y0057339D01*
X0071800Y0057339D01*
X0071800Y0055740D02*
X0070400Y0055740D01*
X0071800Y0055740D01*
X0071800Y0054142D02*
X0070400Y0054142D01*
X0071800Y0054142D01*
X0071800Y0052543D02*
X0070400Y0052543D01*
X0071800Y0052543D01*
X0071800Y0050945D02*
X0070400Y0050945D01*
X0071800Y0050945D01*
X0071800Y0049346D02*
X0070400Y0049346D01*
X0071800Y0049346D01*
X0071800Y0047748D02*
X0070400Y0047748D01*
X0071800Y0047748D01*
X0071800Y0046149D02*
X0070400Y0046149D01*
X0071800Y0046149D01*
X0071800Y0044551D02*
X0069642Y0044551D01*
X0071800Y0044551D01*
X0071800Y0042952D02*
X0049175Y0042952D01*
X0071800Y0042952D01*
X0071800Y0041354D02*
X0048752Y0041354D01*
X0071800Y0041354D01*
X0071800Y0039755D02*
X0050350Y0039755D01*
X0071800Y0039755D01*
X0071800Y0038157D02*
X0051400Y0038157D01*
X0071800Y0038157D01*
X0071800Y0036558D02*
X0051400Y0036558D01*
X0071800Y0036558D01*
X0071800Y0034960D02*
X0051400Y0034960D01*
X0071800Y0034960D01*
X0071800Y0033361D02*
X0049867Y0033361D01*
X0071800Y0033361D01*
X0071800Y0030164D02*
X0049941Y0030164D01*
X0071800Y0030164D01*
X0071800Y0028566D02*
X0051063Y0028566D01*
X0050734Y0029211D01*
X0050309Y0029797D01*
X0049797Y0030309D01*
X0049211Y0030734D01*
X0048566Y0031063D01*
X0047877Y0031287D01*
X0047162Y0031400D01*
X0046900Y0031400D01*
X0046900Y0026900D01*
X0046700Y0026900D01*
X0046700Y0031400D01*
X0046438Y0031400D01*
X0045723Y0031287D01*
X0045034Y0031063D01*
X0044389Y0030734D01*
X0043803Y0030309D01*
X0043291Y0029797D01*
X0042866Y0029211D01*
X0042537Y0028566D01*
X0042313Y0027877D01*
X0042200Y0027162D01*
X0042200Y0026900D01*
X0046700Y0026900D01*
X0046700Y0031400D01*
X0046438Y0031400D01*
X0045723Y0031287D01*
X0045034Y0031063D01*
X0044389Y0030734D01*
X0043803Y0030309D01*
X0043291Y0029797D01*
X0042866Y0029211D01*
X0042537Y0028566D01*
X0042313Y0027877D01*
X0042200Y0027162D01*
X0042200Y0026900D01*
X0046700Y0026900D01*
X0046900Y0026900D01*
X0051400Y0026900D01*
X0051400Y0027162D01*
X0051287Y0027877D01*
X0051063Y0028566D01*
X0050734Y0029211D01*
X0050309Y0029797D01*
X0049797Y0030309D01*
X0049211Y0030734D01*
X0048566Y0031063D01*
X0047877Y0031287D01*
X0047162Y0031400D01*
X0046900Y0031400D01*
X0046900Y0026900D01*
X0046900Y0026700D01*
X0051400Y0026700D01*
X0051400Y0026438D01*
X0051287Y0025723D01*
X0051063Y0025034D01*
X0050734Y0024389D01*
X0050309Y0023803D01*
X0049797Y0023291D01*
X0049211Y0022866D01*
X0048566Y0022537D01*
X0047877Y0022313D01*
X0047162Y0022200D01*
X0046900Y0022200D01*
X0046900Y0026700D01*
X0046900Y0026900D01*
X0051400Y0026900D01*
X0051400Y0027162D01*
X0051287Y0027877D01*
X0051063Y0028566D01*
X0071800Y0028566D01*
X0071800Y0026967D02*
X0051400Y0026967D01*
X0071800Y0026967D01*
X0071800Y0025369D02*
X0051172Y0025369D01*
X0071800Y0025369D01*
X0071800Y0023770D02*
X0050276Y0023770D01*
X0071800Y0023770D01*
X0071800Y0022172D02*
X0068043Y0022172D01*
X0071800Y0022172D01*
X0071800Y0020573D02*
X0070805Y0020573D01*
X0071800Y0020573D01*
X0067000Y0020573D02*
X0066600Y0020573D01*
X0067000Y0020573D01*
X0067000Y0018975D02*
X0066600Y0018975D01*
X0067000Y0018975D01*
X0067000Y0017376D02*
X0066600Y0017376D01*
X0067000Y0017376D01*
X0067000Y0015778D02*
X0066600Y0015778D01*
X0067000Y0015778D01*
X0067000Y0014179D02*
X0066600Y0014179D01*
X0067000Y0014179D01*
X0067000Y0012581D02*
X0066600Y0012581D01*
X0067000Y0012581D01*
X0070350Y0012581D02*
X0071800Y0012581D01*
X0070350Y0012581D01*
X0071637Y0014179D02*
X0071800Y0014179D01*
X0071637Y0014179D01*
X0067000Y0022172D02*
X0066600Y0022172D01*
X0067000Y0022172D01*
X0051287Y0025723D02*
X0051400Y0026438D01*
X0051400Y0026700D01*
X0046900Y0026700D01*
X0046700Y0026700D01*
X0042200Y0026700D01*
X0042200Y0026438D01*
X0042313Y0025723D01*
X0042537Y0025034D01*
X0042866Y0024389D01*
X0043291Y0023803D01*
X0043803Y0023291D01*
X0044389Y0022866D01*
X0045034Y0022537D01*
X0045723Y0022313D01*
X0046438Y0022200D01*
X0046700Y0022200D01*
X0046700Y0026700D01*
X0046700Y0026900D01*
X0046700Y0026700D01*
X0042200Y0026700D01*
X0042200Y0026438D01*
X0042313Y0025723D01*
X0042537Y0025034D01*
X0042866Y0024389D01*
X0043291Y0023803D01*
X0043803Y0023291D01*
X0044389Y0022866D01*
X0045034Y0022537D01*
X0045723Y0022313D01*
X0046438Y0022200D01*
X0046700Y0022200D01*
X0046700Y0026700D01*
X0046900Y0026700D01*
X0046900Y0022200D01*
X0047162Y0022200D01*
X0047877Y0022313D01*
X0048566Y0022537D01*
X0049211Y0022866D01*
X0049797Y0023291D01*
X0050309Y0023803D01*
X0050734Y0024389D01*
X0051063Y0025034D01*
X0051287Y0025723D01*
X0046900Y0025369D02*
X0046700Y0025369D01*
X0046900Y0025369D01*
X0046900Y0026967D02*
X0046700Y0026967D01*
X0046900Y0026967D01*
X0042200Y0026967D02*
X0041200Y0026967D01*
X0042200Y0026967D01*
X0042428Y0025369D02*
X0041200Y0025369D01*
X0042428Y0025369D01*
X0041200Y0024977D02*
X0038623Y0022400D01*
X0034977Y0022400D01*
X0032400Y0024977D01*
X0032400Y0028623D01*
X0034977Y0031200D01*
X0038623Y0031200D01*
X0041200Y0028623D01*
X0041200Y0024977D01*
X0038623Y0022400D01*
X0034977Y0022400D01*
X0032400Y0024977D01*
X0032400Y0028623D01*
X0034977Y0031200D01*
X0038623Y0031200D01*
X0041200Y0028623D01*
X0041200Y0024977D01*
X0039993Y0023770D02*
X0043324Y0023770D01*
X0039993Y0023770D01*
X0046700Y0023770D02*
X0046900Y0023770D01*
X0046700Y0023770D01*
X0046700Y0028566D02*
X0046900Y0028566D01*
X0046700Y0028566D01*
X0042537Y0028566D02*
X0041200Y0028566D01*
X0042537Y0028566D01*
X0043659Y0030164D02*
X0039658Y0030164D01*
X0043659Y0030164D01*
X0046700Y0030164D02*
X0046900Y0030164D01*
X0046700Y0030164D01*
X0046700Y0032200D02*
X0046700Y0036700D01*
X0042200Y0036700D01*
X0042200Y0034895D01*
X0044895Y0032200D01*
X0046700Y0032200D01*
X0046700Y0036700D01*
X0046700Y0036900D01*
X0046700Y0041400D01*
X0044895Y0041400D01*
X0042200Y0038705D01*
X0042200Y0036900D01*
X0046700Y0036900D01*
X0046900Y0036900D01*
X0046900Y0041400D01*
X0048705Y0041400D01*
X0051400Y0038705D01*
X0051400Y0036900D01*
X0046900Y0036900D01*
X0046900Y0036700D01*
X0051400Y0036700D01*
X0051400Y0034895D01*
X0048705Y0032200D01*
X0046900Y0032200D01*
X0046900Y0036700D01*
X0046900Y0036900D01*
X0046700Y0036900D01*
X0046700Y0041400D01*
X0044895Y0041400D01*
X0042200Y0038705D01*
X0042200Y0036900D01*
X0046700Y0036900D01*
X0046700Y0036700D01*
X0046900Y0036700D01*
X0051400Y0036700D01*
X0051400Y0034895D01*
X0048705Y0032200D01*
X0046900Y0032200D01*
X0046900Y0036700D01*
X0046700Y0036700D01*
X0042200Y0036700D01*
X0042200Y0034895D01*
X0044895Y0032200D01*
X0046700Y0032200D01*
X0046700Y0033361D02*
X0046900Y0033361D01*
X0046700Y0033361D01*
X0043733Y0033361D02*
X0039584Y0033361D01*
X0043733Y0033361D01*
X0041200Y0034977D02*
X0038623Y0032400D01*
X0034977Y0032400D01*
X0032400Y0034977D01*
X0032400Y0038623D01*
X0034977Y0041200D01*
X0038623Y0041200D01*
X0041200Y0038623D01*
X0041200Y0034977D01*
X0038623Y0032400D01*
X0034977Y0032400D01*
X0032400Y0034977D01*
X0032400Y0038623D01*
X0034977Y0041200D01*
X0038623Y0041200D01*
X0041200Y0038623D01*
X0041200Y0034977D01*
X0041182Y0034960D02*
X0042200Y0034960D01*
X0041182Y0034960D01*
X0041200Y0036558D02*
X0042200Y0036558D01*
X0041200Y0036558D01*
X0041200Y0038157D02*
X0042200Y0038157D01*
X0041200Y0038157D01*
X0040067Y0039755D02*
X0043250Y0039755D01*
X0040067Y0039755D01*
X0046700Y0039755D02*
X0046900Y0039755D01*
X0046700Y0039755D01*
X0046700Y0038157D02*
X0046900Y0038157D01*
X0046700Y0038157D01*
X0046900Y0036900D02*
X0046900Y0041400D01*
X0048705Y0041400D01*
X0051400Y0038705D01*
X0051400Y0036900D01*
X0046900Y0036900D01*
X0046900Y0036558D02*
X0046700Y0036558D01*
X0046900Y0036558D01*
X0046900Y0034960D02*
X0046700Y0034960D01*
X0046900Y0034960D01*
X0046900Y0041354D02*
X0046700Y0041354D01*
X0046900Y0041354D01*
X0044425Y0042952D02*
X0039175Y0042952D01*
X0044425Y0042952D01*
X0041200Y0044977D02*
X0038623Y0042400D01*
X0034977Y0042400D01*
X0032400Y0044977D01*
X0032400Y0048623D01*
X0034977Y0051200D01*
X0038623Y0051200D01*
X0041200Y0048623D01*
X0041200Y0044977D01*
X0038623Y0042400D01*
X0034977Y0042400D01*
X0032400Y0044977D01*
X0032400Y0048623D01*
X0034977Y0051200D01*
X0038623Y0051200D01*
X0041200Y0048623D01*
X0041200Y0044977D01*
X0040773Y0044551D02*
X0042827Y0044551D01*
X0040773Y0044551D01*
X0041200Y0046149D02*
X0042400Y0046149D01*
X0041200Y0046149D01*
X0041200Y0047748D02*
X0042400Y0047748D01*
X0041200Y0047748D01*
X0040476Y0049346D02*
X0043124Y0049346D01*
X0040476Y0049346D01*
X0038878Y0050945D02*
X0044722Y0050945D01*
X0038878Y0050945D01*
X0038623Y0052400D02*
X0041200Y0054977D01*
X0041200Y0058623D01*
X0038623Y0061200D01*
X0034977Y0061200D01*
X0032400Y0058623D01*
X0032400Y0054977D01*
X0034977Y0052400D01*
X0038623Y0052400D01*
X0041200Y0054977D01*
X0041200Y0058623D01*
X0038623Y0061200D01*
X0034977Y0061200D01*
X0032400Y0058623D01*
X0032400Y0054977D01*
X0034977Y0052400D01*
X0038623Y0052400D01*
X0038766Y0052543D02*
X0044834Y0052543D01*
X0038766Y0052543D01*
X0040364Y0054142D02*
X0043236Y0054142D01*
X0040364Y0054142D01*
X0042400Y0054977D02*
X0044977Y0052400D01*
X0048623Y0052400D01*
X0051200Y0054977D01*
X0051200Y0058623D01*
X0048623Y0061200D01*
X0044977Y0061200D01*
X0042400Y0058623D01*
X0042400Y0054977D01*
X0044977Y0052400D01*
X0048623Y0052400D01*
X0051200Y0054977D01*
X0051200Y0058623D01*
X0048623Y0061200D01*
X0044977Y0061200D01*
X0042400Y0058623D01*
X0042400Y0054977D01*
X0042400Y0055740D02*
X0041200Y0055740D01*
X0042400Y0055740D01*
X0042400Y0057339D02*
X0041200Y0057339D01*
X0042400Y0057339D01*
X0042715Y0058937D02*
X0040885Y0058937D01*
X0042715Y0058937D01*
X0044313Y0060536D02*
X0039287Y0060536D01*
X0044313Y0060536D01*
X0044977Y0062400D02*
X0048623Y0062400D01*
X0051200Y0064977D01*
X0051200Y0068623D01*
X0048623Y0071200D01*
X0044977Y0071200D01*
X0042400Y0068623D01*
X0042400Y0064977D01*
X0044977Y0062400D01*
X0048623Y0062400D01*
X0051200Y0064977D01*
X0051200Y0068623D01*
X0048623Y0071200D01*
X0044977Y0071200D01*
X0042400Y0068623D01*
X0042400Y0064977D01*
X0044977Y0062400D01*
X0043644Y0063733D02*
X0039956Y0063733D01*
X0043644Y0063733D01*
X0042400Y0065332D02*
X0041200Y0065332D01*
X0042400Y0065332D01*
X0041200Y0064977D02*
X0038623Y0062400D01*
X0034977Y0062400D01*
X0032400Y0064977D01*
X0032400Y0068623D01*
X0034977Y0071200D01*
X0038623Y0071200D01*
X0041200Y0068623D01*
X0041200Y0064977D01*
X0038623Y0062400D01*
X0034977Y0062400D01*
X0032400Y0064977D01*
X0032400Y0068623D01*
X0034977Y0071200D01*
X0038623Y0071200D01*
X0041200Y0068623D01*
X0041200Y0064977D01*
X0041200Y0066930D02*
X0042400Y0066930D01*
X0041200Y0066930D01*
X0041200Y0068529D02*
X0042400Y0068529D01*
X0041200Y0068529D01*
X0039695Y0070127D02*
X0043905Y0070127D01*
X0039695Y0070127D01*
X0049695Y0070127D02*
X0063200Y0070127D01*
X0049695Y0070127D01*
X0051200Y0068529D02*
X0063200Y0068529D01*
X0051200Y0068529D01*
X0051200Y0066930D02*
X0063200Y0066930D01*
X0051200Y0066930D01*
X0051200Y0065332D02*
X0063200Y0065332D01*
X0051200Y0065332D01*
X0049956Y0063733D02*
X0063200Y0063733D01*
X0049956Y0063733D01*
X0049287Y0060536D02*
X0063200Y0060536D01*
X0049287Y0060536D01*
X0050885Y0058937D02*
X0063200Y0058937D01*
X0050885Y0058937D01*
X0051200Y0057339D02*
X0063200Y0057339D01*
X0051200Y0057339D01*
X0051200Y0055740D02*
X0063200Y0055740D01*
X0051200Y0055740D01*
X0050364Y0054142D02*
X0063200Y0054142D01*
X0050364Y0054142D01*
X0048766Y0052543D02*
X0063200Y0052543D01*
X0048766Y0052543D01*
X0048878Y0050945D02*
X0063200Y0050945D01*
X0048878Y0050945D01*
D14*
X0046800Y0046800D02*
X0066800Y0046800D01*
X0066800Y0076800D01*
X0146800Y0076800D02*
X0146800Y0066800D01*
X0216800Y0066800D01*
X0216800Y0076800D01*
M02*
